Family Income and Expenditure in the Philippines
…
First, load the relevant libraries that will be needed in the analysis.

#Load relevant libraries
library(tidyverse)
library(tibble)
library(broom)

Next, read the data using the read_csv function

##Read the data
data <- read_csv("Family Income and Expenditure.csv/Family Income and Expenditure.csv")

data

## # A tibble: 41,544 x 60
##    `Total Household Inc~ Region `Total Food Expendi~ `Main Source of Inco~
##                    <int> <chr>                 <int> <chr>                
##  1                480332 CAR                  117848 Wage/Salaries        
##  2                198235 CAR                   67766 Wage/Salaries        
##  3                 82785 CAR                   61609 Wage/Salaries        
##  4                107589 CAR                   78189 Wage/Salaries        
##  5                189322 CAR                   94625 Wage/Salaries        
##  6                152883 CAR                   73326 Wage/Salaries        
##  7                198621 CAR                  104644 Wage/Salaries        
##  8                134961 CAR                   95644 Other sources of Inc~
##  9                171152 CAR                   67348 Other sources of Inc~
## 10                625753 CAR                  158721 Enterpreneurial Acti~
## # ... with 41,534 more rows, and 56 more variables: `Agricultural
## #   Household indicator` <int>, `Bread and Cereals Expenditure` <int>,
## #   `Total Rice Expenditure` <int>, `Meat Expenditure` <int>, `Total Fish
## #   and marine products Expenditure` <int>, `Fruit Expenditure` <int>,
## #   `Vegetables Expenditure` <int>, `Restaurant and hotels
## #   Expenditure` <int>, `Alcoholic Beverages Expenditure` <int>, `Tobacco
## #   Expenditure` <int>, `Clothing, Footwear and Other Wear
## #   Expenditure` <int>, `Housing and water Expenditure` <int>, `Imputed
## #   House Rental Value` <int>, `Medical Care Expenditure` <int>,
…
new_data

## # A tibble: 41,544 x 21
##    total_income region bread_expenses rice_expenses meat_expenses
##           <int> <chr>           <dbl>         <dbl>         <dbl>
##  1       480332 CAR             42140         38300         24676
##  2       198235 CAR             17329         13008         17434
##  3        82785 CAR             34182         32001          7783
##  4       107589 CAR             34030         28659         10914
##  5       189322 CAR             34820         30167         18391
##  6       152883 CAR             29065         25190         15336
##  7       198621 CAR             40992         36312         12968
##  8       134961 CAR             37168         28156         14640
##  9       171152 CAR             23117         15845         11464
## 10       625753 CAR             56003         43239         26488
## # ... with 41,534 more rows, and 16 more variables:
## #   seafood_expenses <dbl>, fruit_expenses <dbl>,
## #   vegetable_expenses <dbl>, restaurant_expenses <dbl>,
## #   alcohol_expenses <dbl>, tobacco_expenses <dbl>,
## #   clothing_expenses <dbl>, housing_expenses <dbl>, house_value <dbl>,
## #   medical_expenses <dbl>, transportation_expenses <dbl>,
## #   communication_expenses <dbl>, education_expenses <dbl>,
## #   miscalleanous_expenses <dbl>, farming_expenses <dbl>,
## #   family_members <int>
…
From the data, the annual average household income, average expenditure, and average savings for a family in the Philippines is 247555.6 PHP, 213071.2 PHP, and 34484.41 PHP, respectively. In dollars, these figures translate to $4762.97, $4076.45, and $659.69, respectively.

Although these numbers give us the average income, expenses, and savings, it is better to look at the numbers for each region because some regions are rich like the NCR region, while some regions are poor like the ARMM region. This way, we can get a better look at the average income, expenses, and savings for a family in the Philippines. The code here is similar to the one above, except we make a call to group_by()

filtered_data <- new_data %>% 
  group_by(region) %>%
  mutate(total_expenses = bread_expenses + rice_expenses + meat_expenses + seafood_expenses + fruit_expenses + vegetable_expenses + restaurant_expenses + alcohol_expenses + tobacco_expenses + clothing_expenses + housing_expenses + house_value + medical_expenses + transportation_expenses + education_expenses + miscalleanous_expenses + farming_expenses) %>% 
  mutate(savings = total_income - total_expenses) %>%
  select(c(total_income, region, total_expenses, savings))

filtered_data

## # A tibble: 41,544 x 4
## # Groups:   region [17]
##    total_income region total_expenses savings
##           <int> <chr>           <dbl>   <dbl>
##  1       480332 CAR            345011  135321
##  2       198235 CAR            207135 -  8900
##  3        82785 CAR            123466 - 40681
##  4       107589 CAR            151423 - 43834
##  5       189322 CAR            202821 - 13499
##  6       152883 CAR            131680   21203
##  7       198621 CAR            270797 - 72176
##  8       134961 CAR            239184 -104223
##  9       171152 CAR            112029   59123
## 10       625753 CAR            322077  303676
## # ... with 41,534 more rows
…
So, for the second model, the same 10% of the data is used so that the same values are used. However, different sets of predictors will be used. In the Visualization part, there was a correlation between total expenses and total income, so this predictor should probably be used. But, it is also imperative that the model must not have a small set of predictors such that it will give bad predictions. So, the total expenses will broken up based on food, entertainment, and necessities.

new_sub_df <- subset_df %>% 
  #Get all the food expenses
  mutate(food_expenses = bread_expenses + rice_expenses + meat_expenses + seafood_expenses + fruit_expenses + vegetable_expenses) %>%
  #Get all the entertainment expenses
  mutate(entertainment_expenses = restaurant_expenses + alcohol_expenses + tobacco_expenses + miscalleanous_expenses) %>%
  #Get all the necessary expenses
  mutate(neccesary_expenses = clothing_expenses + housing_expenses + house_value + medical_expenses + transportation_expenses + communication_expenses + education_expenses + farming_expenses) %>%
  select(c("total_income", "region", "food_expenses", "entertainment_expenses", "neccesary_expenses", "family_members"))

new_sub_df

## # A tibble: 4,155 x 6
## # Groups:   region [17]
##    total_income region food_expenses entertainment_expe~ neccesary_expens~
##           <int> <chr>          <dbl>               <dbl>             <dbl>
##  1        73435 ARMM           54671                3667             17056
##  2        70630 ARMM           84176                7154             39606
##  3       144263 ARMM          114356                9147             91331
##  4        80146 ARMM           36693               15941             26021
##  5        94550 ARMM           64943                7404             21843
##  6       108240 ARMM           51957               30026             66641
##  7       115930 ARMM           63138               25972             22686
##  8        97579 ARMM           52024                4569             28489
##  9        98045 ARMM           52265               16815            117649
## 10        88405 ARMM           52791                9822             35442
## # ... with 4,145 more rows, and 1 more variable: family_members <int>
…
